{"count":10000,"next":"https://www.udemy.com/api-2.0/courses/?page=2&page_size=12","previous":null,"results":[{"_class":"course","id":362328,"title":"AWS Certified Solutions Architect - Associate 2019","url":"/aws-certified-solutions-architect-associate/","is_paid":true,"price":"₹11,520","price_detail":{"amount":11520.0,"price_string":"₹11,520","currency":"INR","currency_symbol":"₹"},"visible_instructors":[{"display_name":"Ryan Kroonenburg","url":"/user/ryankroonenburg/","job_title":"Solutions Architect","initials":"RK","image_50x50":"https://i.udemycdn.com/user/50x50/646294_3e1d_3.jpg","_class":"user","title":"Ryan Kroonenburg","name":"Ryan","image_100x100":"https://i.udemycdn.com/user/100x100/646294_3e1d_3.jpg"},{"display_name":"Faye Ellis","url":"/user/faye-ellis-2/","job_title":"Instructor at A Cloud Guru","initials":"FE","image_50x50":"https://i.udemycdn.com/user/50x50/44848936_b7c8_2.jpg","_class":"user","title":"Faye Ellis","name":"Faye","image_100x100":"https://i.udemycdn.com/user/100x100/44848936_b7c8_2.jpg"}],"image_125_H":"https://i.udemycdn.com/course/125_H/362328_91f3_10.jpg","image_240x135":"https://i.udemycdn.com/course/240x135/362328_91f3_10.jpg","is_practice_test_course":false,"image_480x270":"https://i.udemycdn.com/course/480x270/362328_91f3_10.jpg","published_title":"aws-certified-solutions-architect-associate","predictive_score":null,"relevancy_score":0,"input_features":null,"lecture_search_result":null,"curriculum_lectures":[],"order_in_results":null},{"_class":"course","id":625204,"title":"The Web Developer Bootcamp","url":"/the-web-developer-bootcamp/","is_paid":true,"price":"₹12,800","price_detail":{"amount":12800.0,"price_string":"₹12,800","currency":"INR","currency_symbol":"₹"},"visible_instructors":[{"display_name":"Colt Steele","url":"/user/coltsteele/","job_title":"Developer and Bootcamp Instructor","initials":"CS","image_50x50":"https://i.udemycdn.com/user/50x50/4466306_6fd8_3.jpg","_class":"user","title":"Colt Steele","name":"Colt","image_100x100":"https://i.udemycdn.com/user/100x100/4466306_6fd8_3.jpg"}],"image_125_H":"https://i.udemycdn.com/course/125_H/625204_436a_2.jpg","image_240x135":"https://i.udemycdn.com/course/240x135/625204_436a_2.jpg","is_practice_test_course":false,"image_480x270":"https://i.udemycdn.com/course/480x270/625204_436a_2.jpg","published_title":"the-web-developer-bootcamp","predictive_score":null,"relevancy_score":0,"input_features":null,"lecture_search_result":null,"curriculum_lectures":[],"order_in_results":null},{"_class":"course","id":567828,"title":"Complete Python Bootcamp: Go from zero to hero in Python 3","url":"/complete-python-bootcamp/","is_paid":true,"price":"₹12,480","price_detail":{"amount":12480.0,"price_string":"₹12,480","currency":"INR","currency_symbol":"₹"},"visible_instructors":[{"display_name":"Jose Portilla","url":"/user/joseportilla/","job_title":"Head of Data Science, Pierian Data Inc.","initials":"JP","image_50x50":"https://i.udemycdn.com/user/50x50/9685726_67e7_4.jpg","_class":"user","title":"Jose Portilla","name":"Jose","image_100x100":"https://i.udemycdn.com/user/100x100/9685726_67e7_4.jpg"}],"image_125_H":"https://i.udemycdn.com/course/125_H/567828_67d0.jpg","image_240x135":"https://i.udemycdn.com/course/240x135/567828_67d0.jpg","is_practice_test_course":false,"image_480x270":"https://i.udemycdn.com/course/480x270/567828_67d0.jpg","published_title":"complete-python-bootcamp","predictive_score":null,"relevancy_score":0,"input_features":null,"lecture_search_result":null,"curriculum_lectures":[],"order_in_results":null},{"_class":"course","id":756150,"title":"Angular 8 (formerly Angular 2) - The Complete Guide","url":"/the-complete-guide-to-angular-2/","is_paid":true,"price":"₹12,160","price_detail":{"amount":12160.0,"price_string":"₹12,160","currency_symbol":"₹","currency":"INR"},"visible_instructors":[{"display_name":"Maximilian Schwarzmüller","url":"/user/maximilian-schwarzmuller/","job_title":"Professional Web Developer and Instructor","initials":"MS","image_50x50":"https://i.udemycdn.com/user/50x50/13952972_e853.jpg","_class":"user","title":"Maximilian Schwarzmüller","name":"Maximilian","image_100x100":"https://i.udemycdn.com/user/100x100/13952972_e853.jpg"}],"image_125_H":"https://i.udemycdn.com/course/125_H/756150_c033_2.jpg","image_240x135":"https://i.udemycdn.com/course/240x135/756150_c033_2.jpg","is_practice_test_course":false,"image_480x270":"https://i.udemycdn.com/course/480x270/756150_c033_2.jpg","published_title":"the-complete-guide-to-angular-2","predictive_score":null,"relevancy_score":0,"input_features":null,"lecture_search_result":null,"curriculum_lectures":[],"order_in_results":null},{"_class":"course","id":950390,"title":"Machine Learning A-Z™: Hands-On Python & R In Data Science","url":"/machinelearning/","is_paid":true,"price":"₹12,800","price_detail":{"amount":12800.0,"price_string":"₹12,800","currency":"INR","currency_symbol":"₹"},"visible_instructors":[{"display_name":"Kirill Eremenko","url":"/user/kirilleremenko/","job_title":"Data Scientist","initials":"KE","image_50x50":"https://i.udemycdn.com/user/50x50/2364054_83cd_5.jpg","_class":"user","title":"Kirill Eremenko","name":"Kirill","image_100x100":"https://i.udemycdn.com/user/100x100/2364054_83cd_5.jpg"},{"display_name":"Hadelin de Ponteves","url":"/user/hadelin-de-ponteves/","job_title":"AI Entrepreneur","initials":"HD","image_50x50":"https://i.udemycdn.com/user/50x50/22113450_6fb5_3.jpg","_class":"user","title":"Hadelin de Ponteves","name":"Hadelin","image_100x100":"https://i.udemycdn.com/user/100x100/22113450_6fb5_3.jpg"},{"display_name":"SuperDataScience Team","url":"/user/superdatascience-team/","job_title":"Helping Data Scientists Succeed","initials":"ST","image_50x50":"https://i.udemycdn.com/user/50x50/27129696_acc1.jpg","_class":"user","title":"SuperDataScience Team","name":"SuperDataScience","image_100x100":"https://i.udemycdn.com/user/100x100/27129696_acc1.jpg"},{"display_name":"SuperDataScience Support","url":"/user/superdatascience-support/","job_title":"Answering All Your Questions","initials":"SS","image_50x50":"https://i.udemycdn.com/user/50x50/49643366_0fa3.jpg","_class":"user","title":"SuperDataScience Support","name":"SuperDataScience","image_100x100":"https://i.udemycdn.com/user/100x100/49643366_0fa3.jpg"}],"image_125_H":"https://i.udemycdn.com/course/125_H/950390_270f_3.jpg","image_240x135":"https://i.udemycdn.com/course/240x135/950390_270f_3.jpg","is_practice_test_course":false,"image_480x270":"https://i.udemycdn.com/course/480x270/950390_270f_3.jpg","published_title":"machinelearning","predictive_score":null,"relevancy_score":0,"input_features":null,"lecture_search_result":null,"curriculum_lectures":[],"order_in_results":null},{"_class":"course","id":533682,"title":"Java Programming Masterclass for Software Developers","url":"/java-the-complete-java-developer-course/","is_paid":true,"price":"₹12,480","price_detail":{"amount":12480.0,"price_string":"₹12,480","currency":"INR","currency_symbol":"₹"},"visible_instructors":[{"display_name":"Tim Buchalka","url":"/user/timbuchalka/","job_title":"Java Python Android and C# Expert Developer - 467K+ students","initials":"TB","image_50x50":"https://i.udemycdn.com/user/50x50/599932_71aa_5.jpg","_class":"user","title":"Tim Buchalka","name":"Tim","image_100x100":"https://i.udemycdn.com/user/100x100/599932_71aa_5.jpg"},{"display_name":"Tim Buchalka's Learn Programming Academy","url":"/user/learn-programming-academy/","job_title":"Professional Programmers and Teachers - 500K+ students","initials":"TP","image_50x50":"https://i.udemycdn.com/user/50x50/35101150_6f0c_4.jpg","_class":"user","title":"Tim Buchalka's Learn Programming Academy","name":"Tim Buchalka's Learn","image_100x100":"https://i.udemycdn.com/user/100x100/35101150_6f0c_4.jpg"},{"display_name":"Goran Lochert","url":"/user/jojo-rabbit/","job_title":"Software Engineer | Udemy Instructor | Indie Game Developer","initials":"GL","image_50x50":"https://i.udemycdn.com/user/50x50/19087122_6d0f_2.jpg","_class":"user","title":"Goran Lochert","name":"Goran","image_100x100":"https://i.udemycdn.com/user/100x100/19087122_6d0f_2.jpg"}],"image_125_H":"https://i.udemycdn.com/course/125_H/533682_c10c_4.jpg","image_240x135":"https://i.udemycdn.com/course/240x135/533682_c10c_4.jpg","is_practice_test_course":false,"image_480x270":"https://i.udemycdn.com/course/480x270/533682_c10c_4.jpg","published_title":"java-the-complete-java-developer-course","predictive_score":null,"relevancy_score":0,"input_features":null,"lecture_search_result":null,"curriculum_lectures":[],"order_in_results":null},{"_class":"course","id":874012,"title":"The Ultimate Drawing Course - Beginner to Advanced","url":"/the-ultimate-drawing-course-beginner-to-advanced/","is_paid":true,"price":"₹9,600","price_detail":{"amount":9600.0,"price_string":"₹9,600","currency":"INR","currency_symbol":"₹"},"visible_instructors":[{"display_name":"Jaysen Batchelor","url":"/user/jaysen-batchelor/","job_title":"Illustrator & Designer","initials":"JB","image_50x50":"https://i.udemycdn.com/user/50x50/17082766_0590_7.jpg","_class":"user","title":"Jaysen Batchelor","name":"Jaysen","image_100x100":"https://i.udemycdn.com/user/100x100/17082766_0590_7.jpg"},{"display_name":"Quinton Batchelor","url":"/user/quinton-batchelor-2/","job_title":"Artist & Instructor","initials":"QB","image_50x50":"https://i.udemycdn.com/user/50x50/32143518_ff3d_3.jpg","_class":"user","title":"Quinton Batchelor","name":"Quinton","image_100x100":"https://i.udemycdn.com/user/100x100/32143518_ff3d_3.jpg"}],"image_125_H":"https://i.udemycdn.com/course/125_H/874012_c7f2_3.jpg","image_240x135":"https://i.udemycdn.com/course/240x135/874012_c7f2_3.jpg","is_practice_test_course":false,"image_480x270":"https://i.udemycdn.com/course/480x270/874012_c7f2_3.jpg","published_title":"the-ultimate-drawing-course-beginner-to-advanced","predictive_score":null,"relevancy_score":0,"input_features":null,"lecture_search_result":null,"curriculum_lectures":[],"order_in_results":null},{"_class":"course","id":793796,"title":"Microsoft Excel - Excel from Beginner to Advanced","url":"/microsoft-excel-2013-from-beginner-to-advanced-and-beyond/","is_paid":true,"price":"₹9,600","price_detail":{"amount":9600.0,"price_string":"₹9,600","currency":"INR","currency_symbol":"₹"},"visible_instructors":[{"display_name":"Kyle Pew","url":"/user/kyle-pew/","job_title":"Microsoft Certified Trainer - 240,000+ Udemy Students","initials":"KP","image_50x50":"https://i.udemycdn.com/user/50x50/16649710_ee35_3.jpg","_class":"user","title":"Kyle Pew","name":"Kyle","image_100x100":"https://i.udemycdn.com/user/100x100/16649710_ee35_3.jpg"}],"image_125_H":"https://i.udemycdn.com/course/125_H/793796_0e89.jpg","image_240x135":"https://i.udemycdn.com/course/240x135/793796_0e89.jpg","is_practice_test_course":false,"image_480x270":"https://i.udemycdn.com/course/480x270/793796_0e89.jpg","published_title":"microsoft-excel-2013-from-beginner-to-advanced-and-beyond","predictive_score":null,"relevancy_score":0,"input_features":null,"lecture_search_result":null,"curriculum_lectures":[],"order_in_results":null},{"_class":"course","id":258316,"title":"Complete C# Unity Developer 2D: Learn to Code Making Games","url":"/unitycourse/","is_paid":true,"price":"₹12,480","price_detail":{"amount":12480.0,"price_string":"₹12,480","currency":"INR","currency_symbol":"₹"},"visible_instructors":[{"display_name":"Ben Tristem","url":"/user/bentristem/","job_title":"GameDev.tv Founder :: Entrepreneur :: Passionate Teacher","initials":"BT","image_50x50":"https://i.udemycdn.com/user/50x50/4355282_676b_2.jpg","_class":"user","title":"Ben Tristem","name":"Ben","image_100x100":"https://i.udemycdn.com/user/100x100/4355282_676b_2.jpg"},{"display_name":"GameDev.tv by Ben Tristem","url":"/user/gamedevtv/","job_title":"Learn to Make and Sell Games","initials":"GB","image_50x50":"https://i.udemycdn.com/user/50x50/33027212_4271_5.jpg","_class":"user","title":"GameDev.tv by Ben Tristem","name":"GameDev.tv","image_100x100":"https://i.udemycdn.com/user/100x100/33027212_4271_5.jpg"},{"display_name":"Rick Davidson","url":"/user/rick-davidson-5/","job_title":"Career Coach with 14+ years in the Video Game Industry","initials":"RD","image_50x50":"https://i.udemycdn.com/user/50x50/24317920_c8a2_2.jpg","_class":"user","title":"Rick Davidson","name":"Rick","image_100x100":"https://i.udemycdn.com/user/100x100/24317920_c8a2_2.jpg"}],"image_125_H":"https://i.udemycdn.com/course/125_H/258316_55e9_7.jpg","image_240x135":"https://i.udemycdn.com/course/240x135/258316_55e9_7.jpg","is_practice_test_course":false,"image_480x270":"https://i.udemycdn.com/course/480x270/258316_55e9_7.jpg","published_title":"unitycourse","predictive_score":null,"relevancy_score":0,"input_features":null,"lecture_search_result":null,"curriculum_lectures":[],"order_in_results":null},{"_class":"course","id":914296,"title":"The Complete Digital Marketing Course - 12 Courses in 1","url":"/learn-digital-marketing-course/","is_paid":true,"price":"₹12,800","price_detail":{"amount":12800.0,"price_string":"₹12,800","currency":"INR","currency_symbol":"₹"},"visible_instructors":[{"display_name":"Rob Percival","url":"/user/robpercival/","job_title":"Web Developer And Teacher","image_100x100":"https://i.udemycdn.com/user/100x100/4387876_78bc.jpg","image_50x50":"https://i.udemycdn.com/user/50x50/4387876_78bc.jpg","_class":"user","title":"Rob Percival","name":"Rob","initials":"RP"},{"display_name":"Daragh Walsh","url":"/user/daraghmichaelw/","job_title":"Join 500,000+ Students In My Best Selling Courses!","image_100x100":"https://i.udemycdn.com/user/100x100/1800590_e000_5.jpg","image_50x50":"https://i.udemycdn.com/user/50x50/1800590_e000_5.jpg","_class":"user","title":"Daragh Walsh","name":"Daragh","initials":"DW"},{"display_name":"Codestars by Rob Percival","url":"/user/codestars/","job_title":"Teaching the Next Generation of Coders","image_100x100":"https://i.udemycdn.com/user/100x100/33231436_2824_3.jpg","image_50x50":"https://i.udemycdn.com/user/50x50/33231436_2824_3.jpg","_class":"user","title":"Codestars by Rob Percival","name":"Codestars","initials":"CB"}],"image_125_H":"https://i.udemycdn.com/course/125_H/914296_3670_8.jpg","image_240x135":"https://i.udemycdn.com/course/240x135/914296_3670_8.jpg","is_practice_test_course":false,"image_480x270":"https://i.udemycdn.com/course/480x270/914296_3670_8.jpg","published_title":"learn-digital-marketing-course","predictive_score":null,"relevancy_score":0,"input_features":null,"lecture_search_result":null,"curriculum_lectures":[],"order_in_results":null},{"_class":"course","id":764164,"title":"The Complete Web Developer Course 2.0","url":"/the-complete-web-developer-course-2/","is_paid":true,"price":"₹12,800","price_detail":{"amount":12800.0,"price_string":"₹12,800","currency":"INR","currency_symbol":"₹"},"visible_instructors":[{"display_name":"Rob Percival","url":"/user/robpercival/","job_title":"Web Developer And Teacher","initials":"RP","image_50x50":"https://i.udemycdn.com/user/50x50/4387876_78bc.jpg","_class":"user","title":"Rob Percival","name":"Rob","image_100x100":"https://i.udemycdn.com/user/100x100/4387876_78bc.jpg"},{"display_name":"Codestars by Rob Percival","url":"/user/codestars/","job_title":"Teaching the Next Generation of Coders","initials":"CB","image_50x50":"https://i.udemycdn.com/user/50x50/33231436_2824_3.jpg","_class":"user","title":"Codestars by Rob Percival","name":"Codestars","image_100x100":"https://i.udemycdn.com/user/100x100/33231436_2824_3.jpg"}],"image_125_H":"https://i.udemycdn.com/course/125_H/764164_de03_2.jpg","image_240x135":"https://i.udemycdn.com/course/240x135/764164_de03_2.jpg","is_practice_test_course":false,"image_480x270":"https://i.udemycdn.com/course/480x270/764164_de03_2.jpg","published_title":"the-complete-web-developer-course-2","predictive_score":null,"relevancy_score":0,"input_features":null,"lecture_search_result":null,"curriculum_lectures":[],"order_in_results":null},{"_class":"course","id":705264,"title":"Modern React with Redux [2019 Update]","url":"/react-redux/","is_paid":true,"price":"₹11,520","price_detail":{"amount":11520.0,"price_string":"₹11,520","currency":"INR","currency_symbol":"₹"},"visible_instructors":[{"display_name":"Stephen Grider","url":"/user/sgslo/","job_title":"Engineering Architect","initials":"SG","image_50x50":"https://i.udemycdn.com/user/50x50/5487312_0554.jpg","_class":"user","title":"Stephen Grider","name":"Stephen","image_100x100":"https://i.udemycdn.com/user/100x100/5487312_0554.jpg"}],"image_125_H":"https://i.udemycdn.com/course/125_H/705264_caa9_8.jpg","image_240x135":"https://i.udemycdn.com/course/240x135/705264_caa9_8.jpg","is_practice_test_course":false,"image_480x270":"https://i.udemycdn.com/course/480x270/705264_caa9_8.jpg","published_title":"react-redux","predictive_score":null,"relevancy_score":0,"input_features":null,"lecture_search_result":null,"curriculum_lectures":[],"order_in_results":null}],"aggregations":[{"options":[{"title":"Paid","value":"price-paid","count":10000,"key":"price"},{"title":"Free","value":"price-free","count":8968,"key":"price"}],"title":"Price","id":"price"},{"options":[{"title":"All Levels","value":"all","count":10000,"key":"instructional_level"},{"title":"Beginner","value":"beginner","count":10000,"key":"instructional_level"},{"title":"Intermediate","value":"intermediate","count":10000,"key":"instructional_level"},{"title":"Expert","value":"expert","count":2075,"key":"instructional_level"}],"title":"Level","id":"instructional_level"},{"options":[{"title":"Captions","value":"true","count":10000,"key":"has_closed_caption"},{"title":"Quizzes","value":"true","count":10000,"key":"has_simple_quiz"},{"title":"Coding Exercises","value":"true","count":396,"key":"has_coding_exercises"}],"title":"Features","id":"features"},{"options":[{"title":"English","value":"en","count":10000,"key":"language"},{"title":"Português","value":"pt","count":7878,"key":"language"},{"title":"Español","value":"es","count":7286,"key":"language"},{"title":"Deutsch","value":"de","count":2696,"key":"language"},{"title":"Türkçe","value":"tr","count":2392,"key":"language"},{"title":"Français","value":"fr","count":2010,"key":"language"},{"title":"日本語","value":"ja","count":1942,"key":"language"},{"title":"Italiano","value":"it","count":1191,"key":"language"},{"title":"العربية","value":"ar","count":1131,"key":"language"},{"title":"中文","value":"zh","count":1028,"key":"language"},{"title":"Русский","value":"ru","count":882,"key":"language"},{"title":"Polski","value":"pl","count":598,"key":"language"},{"title":"हिन्दी","value":"hi","count":288,"key":"language"},{"title":"한국어","value":"ko","count":232,"key":"language"},{"title":"Bahasa Indonesia","value":"id","count":185,"key":"language"},{"title":"اردو","value":"ur","count":174,"key":"language"},{"title":"ภาษาไทย","value":"th","count":125,"key":"language"},{"title":"Nederlands","value":"nl","count":86,"key":"language"},{"title":"\u200fעברית\u200f","value":"he","count":83,"key":"language"},{"title":"Română","value":"ro","count":78,"key":"language"},{"title":"Tiếng Việt","value":"vi","count":60,"key":"language"},{"title":"Magyar","value":"hu","count":54,"key":"language"},{"title":"தமிழ்","value":"ta","count":46,"key":"language"},{"title":"Ελληνικά","value":"el","count":40,"key":"language"},{"title":"Telugu","value":"te","count":35,"key":"language"},{"title":"Azərbaycan dili","value":"az","count":29,"key":"language"},{"title":"Bangla","value":"bn","count":19,"key":"language"},{"title":"Hrvatski","value":"hr","count":13,"key":"language"},{"title":"Afrikaans","value":"af","count":11,"key":"language"},{"title":"فارسی","value":"fa","count":11,"key":"language"},{"title":"मराठी","value":"mr","count":10,"key":"language"},{"title":"Dansk","value":"da","count":9,"key":"language"},{"title":"Українська","value":"uk","count":9,"key":"language"},{"title":"Български","value":"bg","count":7,"key":"language"},{"title":"Suomi","value":"fi","count":7,"key":"language"},{"title":"Eesti","value":"et","count":6,"key":"language"},{"title":"Malayāḷam","value":"ml","count":6,"key":"language"},{"title":"မြန်မာဘာသာ","value":"my","count":6,"key":"language"},{"title":"Norsk","value":"nb","count":6,"key":"language"},{"title":"پښتو","value":"ps","count":6,"key":"language"},{"title":"Slovenčina","value":"sk","count":5,"key":"language"},{"title":"Svenska","value":"sv","count":5,"key":"language"},{"title":"Català","value":"ca","count":4,"key":"language"},{"title":"Čeština","value":"cs","count":4,"key":"language"},{"title":"Қазақша","value":"kk","count":4,"key":"language"},{"title":"Bahasa Melayu","value":"ms","count":4,"key":"language"},{"title":"Српски","value":"sr","count":4,"key":"language"},{"title":"Latviešu","value":"lv","count":3,"key":"language"},{"title":"Filipino","value":"tl","count":3,"key":"language"},{"title":"ქართული","value":"ka","count":2,"key":"language"},{"title":"नेपाली","value":"ne","count":2,"key":"language"},{"title":"Shqip","value":"sq","count":2,"key":"language"},{"title":"O'zbek","value":"uz","count":2,"key":"language"},{"title":"Avañe'ẽ","value":"gn","count":1,"key":"language"},{"title":"Kurdî","value":"ku","count":1,"key":"language"},{"title":"Soomaaliga","value":"so","count":1,"key":"language"},{"title":"татарча / Tatarça / تاتارچا","value":"tt","count":1,"key":"language"}],"title":"Language","id":"language"},{"options":[{"title":"4.5 & up","value":"4.5","count":10000,"key":"ratings"},{"title":"4.0 & up","value":"4.0","count":10000,"key":"ratings"},{"title":"3.5 & up","value":"3.5","count":10000,"key":"ratings"},{"title":"3.0 & up","value":"3.0","count":10000,"key":"ratings"}],"title":"Ratings","id":"ratings"},{"options":[{"title":"0-2 Hours","value":"short","count":10000,"key":"duration"},{"title":"3-6 Hours","value":"medium","count":10000,"key":"duration"},{"title":"7-16 Hours","value":"long","count":10000,"key":"duration"},{"title":"17+ Hours","value":"extraLong","count":3093,"key":"duration"}],"title":"Duration","id":"duration"}]}